transcript
# vsim -c tb_processor -voptargs="+acc" -do "run -all" 
# Start time: 14:28:05 on Dec 30,2024
# ** Note: (vsim-8009) Loading existing optimized design _opt
# //  Questa Sim-64
# //  Version 10.6c win64 Jul 26 2017
# //
# //  Copyright 1991-2017 Mentor Graphics Corporation
# //  All Rights Reserved.
# //
# //  QuestaSim and its associated documentation contain trade
# //  secrets and commercial or financial information that are the property of
# //  Mentor Graphics Corporation and are privileged, confidential,
# //  and exempt from disclosure under the Freedom of Information Act,
# //  5 U.S.C. Section 552. Furthermore, this information
# //  is prohibited from disclosure under the Trade Secrets Act,
# //  18 U.S.C. Section 1905.
# //
# Loading sv_std.std
# Loading work.tb_processor(fast)
# Loading work.processor(fast)
# Loading work.pc(fast)
# Loading work.inst_mem(fast)
# Loading work.inst_dec(fast)
# Loading work.reg_file(fast)
# Loading work.imm_gen(fast)
# Loading work.mux(fast)
# Loading work.controller(fast)
# Loading work.alu(fast)
# Loading work.data_memory(fast)
# Loading work.Mux4X1(fast)
# Loading work.branch_condition(fast)
# Loading work.MuxA2x1(fast)
# Loading work.Pc_mux(fast)
# run -all
# Time: 0 | opr_a: 00000000000000000000000000000000 | opr_b: 00000000000000000000000000000101 | aluop: 0000 | opr_res: 00000000000000000000000000000101
# Time: 15 | opr_a: 00000000000000000000000000000000 | opr_b: 00000000000000000000000000000001 | aluop: 0000 | opr_res: 00000000000000000000000000000001
# Time: 35 | opr_a: 00000000000000000000000000001100 | opr_b: 00000000000000000000000000010000 | aluop: 0000 | opr_res: 00000000000000000000000000011100
# Time: 45 | opr_a: 00000000000000000000000000000001 | opr_b: 00000000000000000000000000000101 | aluop: 1011 | opr_res: 00000000000000000000000000000101
# Time: 55 | opr_a: 00000000000000000000000000000101 | opr_b: 11111111111111111111111111111111 | aluop: 0000 | opr_res: 00000000000000000000000000000100
# Time: 65 | opr_a: 00000000000000000000000000011000 | opr_b: 11111111111111111111111111110100 | aluop: 0000 | opr_res: 00000000000000000000000000001100
# Time: 75 | opr_a: 00000000000000000000000000001100 | opr_b: 00000000000000000000000000010000 | aluop: 0000 | opr_res: 00000000000000000000000000011100
# Time: 85 | opr_a: 00000000000000000000000000000101 | opr_b: 00000000000000000000000000000100 | aluop: 1011 | opr_res: 00000000000000000000000000010100
# Time: 95 | opr_a: 00000000000000000000000000000100 | opr_b: 11111111111111111111111111111111 | aluop: 0000 | opr_res: 00000000000000000000000000000011
# Time: 105 | opr_a: 00000000000000000000000000011000 | opr_b: 11111111111111111111111111110100 | aluop: 0000 | opr_res: 00000000000000000000000000001100
# Time: 115 | opr_a: 00000000000000000000000000001100 | opr_b: 00000000000000000000000000010000 | aluop: 0000 | opr_res: 00000000000000000000000000011100
# Time: 125 | opr_a: 00000000000000000000000000010100 | opr_b: 00000000000000000000000000000011 | aluop: 1011 | opr_res: 00000000000000000000000000111100
# Time: 135 | opr_a: 00000000000000000000000000000011 | opr_b: 11111111111111111111111111111111 | aluop: 0000 | opr_res: 00000000000000000000000000000010
# Time: 145 | opr_a: 00000000000000000000000000011000 | opr_b: 11111111111111111111111111110100 | aluop: 0000 | opr_res: 00000000000000000000000000001100
# Time: 155 | opr_a: 00000000000000000000000000001100 | opr_b: 00000000000000000000000000010000 | aluop: 0000 | opr_res: 00000000000000000000000000011100
# Time: 165 | opr_a: 00000000000000000000000000111100 | opr_b: 00000000000000000000000000000010 | aluop: 1011 | opr_res: 00000000000000000000000001111000
# Time: 175 | opr_a: 00000000000000000000000000000010 | opr_b: 11111111111111111111111111111111 | aluop: 0000 | opr_res: 00000000000000000000000000000001
# Time: 185 | opr_a: 00000000000000000000000000011000 | opr_b: 11111111111111111111111111110100 | aluop: 0000 | opr_res: 00000000000000000000000000001100
# Time: 195 | opr_a: 00000000000000000000000000001100 | opr_b: 00000000000000000000000000010000 | aluop: 0000 | opr_res: 00000000000000000000000000011100
# Time: 205 | opr_a: 00000000000000000000000000011100 | opr_b: 00000000000000000000000000001000 | aluop: 0000 | opr_res: 00000000000000000000000000100100
# Time: 215 | opr_a: 00000000000000000000000000011100 | opr_b: 00000000000000000000000000001000 | aluop: 0000 | opr_res: 00000000000000000000000000100100
# Time: 225 | opr_a: 00000000000000000000000000100100 | opr_b: 00000000000000000000000000000000 | aluop: 0000 | opr_res: 00000000000000000000000000100100
# ** Note: $finish    : ./tb_procesor.sv(28)
#    Time: 5010 ns  Iteration: 0  Instance: /tb_processor
# End time: 14:28:07 on Dec 30,2024, Elapsed time: 0:00:02
# Errors: 0, Warnings: 0
